Output/RISC_CPU.vcd
$date
	Fri Jun 13 14:02:31 2025
$end
$version
	Icarus Verilog
$end
$timescale
	1s
$end
$scope module RICS_CPU_tb $end
$var wire 8 ! result [7:0] $end
$var wire 5 " pcc [4:0] $end
$var wire 1 # HALT $end
$var reg 1 $ clk $end
$var reg 1 % reset $end
$scope module cpu $end
$var wire 1 # HALT $end
$var wire 1 $ clk $end
$var wire 8 & mem_data [7:0] $end
$var wire 5 ' pcc [4:0] $end
$var wire 1 % reset $end
$var wire 8 ( result [7:0] $end
$var wire 1 ) wr $end
$var wire 1 * sel $end
$var wire 1 + rd $end
$var wire 5 , pc_out [4:0] $end
$var wire 5 - operand [4:0] $end
$var wire 3 . opcode [2:0] $end
$var wire 5 / mux_out [4:0] $end
$var wire 1 0 ld_pc $end
$var wire 1 1 ld_ir $end
$var wire 1 2 ld_ac $end
$var wire 1 3 inc_pc $end
$var wire 1 4 halt $end
$var wire 1 5 data_e $end
$var wire 1 6 alu_zero $end
$var wire 8 7 alu_out [7:0] $end
$var wire 8 8 acc_out [7:0] $end
$var parameter 32 9 OPCODE $end
$var parameter 33 : WIDTH_ADDRESS_BIT $end
$var parameter 32 ; WIDTH_REG $end
$scope module acc $end
$var wire 1 $ clk $end
$var wire 1 % reset $end
$var wire 1 2 load $end
$var wire 8 < data_in [7:0] $end
$var parameter 32 = WIDTH_REG $end
$var reg 8 > data_out [7:0] $end
$upscope $end
$scope module addr_mux $end
$var wire 1 * sel $end
$var wire 5 ? Z [4:0] $end
$var wire 5 @ B [4:0] $end
$var wire 5 A A [4:0] $end
$var parameter 33 B WIDTH $end
$upscope $end
$scope module alu $end
$var wire 8 C inA [7:0] $end
$var wire 8 D inB [7:0] $end
$var wire 8 E out [7:0] $end
$var wire 3 F opcode [2:0] $end
$var wire 1 6 is_zero $end
$var parameter 32 G OPCODE $end
$var parameter 32 H WIDTH_REG $end
$var reg 8 I result [7:0] $end
$upscope $end
$scope module bus $end
$var wire 8 J A [7:0] $end
$var wire 8 K Z [7:0] $end
$var wire 1 5 sel $end
$var parameter 32 L WIDTH $end
$upscope $end
$scope module ctrl $end
$var wire 1 $ clk $end
$var wire 1 6 is_zero $end
$var wire 1 % reset $end
$var wire 3 M opcode [2:0] $end
$var parameter 32 N ALU_OP $end
$var parameter 32 O IDLE $end
$var parameter 32 P INST_ADDR $end
$var parameter 32 Q INST_FETCH $end
$var parameter 32 R INST_LOAD $end
$var parameter 32 S OP_ADDR $end
$var parameter 32 T OP_FETCH $end
$var parameter 32 U STORE $end
$var reg 1 5 data_e $end
$var reg 1 4 halt $end
$var reg 1 3 inc_pc $end
$var reg 1 2 ld_ac $end
$var reg 1 1 ld_ir $end
$var reg 1 0 ld_pc $end
$var reg 1 + rd $end
$var reg 1 * sel $end
$var reg 3 V state [2:0] $end
$var reg 1 ) wr $end
$upscope $end
$scope module ir $end
$var wire 1 $ clk $end
$var wire 8 W data_in [7:0] $end
$var wire 1 1 load $end
$var wire 1 % reset $end
$var parameter 32 X OPCODE $end
$var parameter 32 Y WIDTH_ADDRESS_BIT $end
$var parameter 32 Z WIDTH_REG $end
$var reg 3 [ opcode [2:0] $end
$var reg 5 \ operand [4:0] $end
$upscope $end
$scope module memory $end
$var wire 5 ] addr [4:0] $end
$var wire 1 $ clk $end
$var wire 8 ^ data [7:0] $end
$var wire 1 + rd $end
$var wire 1 ) wr $end
$var parameter 33 _ WIDTH_ADDRESS_BIT $end
$var parameter 32 ` WIDTH_REG $end
$var reg 8 a data_out [7:0] $end
$upscope $end
$scope module pc $end
$var wire 1 $ clk $end
$var wire 5 b data_in [4:0] $end
$var wire 1 3 inc $end
$var wire 1 0 load $end
$var wire 1 % reset $end
$var parameter 33 c WIDTH_ADDRESS_BIT $end
$var reg 5 d data_out [4:0] $end
$upscope $end
$upscope $end
$upscope $end
$enddefinitions $end
$comment Show the parameter values. $end
$dumpall
b101 c
b1000 `
b101 _
b1000 Z
b101 Y
b11 X
b111 U
b101 T
b100 S
b10 R
b1 Q
b0 P
b11 O
b110 N
b1000 L
b1000 H
b11 G
b101 B
b1000 =
b1000 ;
b101 :
b11 9
$end
#0
$dumpvars
b0 d
b0 b
bx a
bz ^
b0 ]
b0 \
b0 [
bz W
b0 V
b0 M
bz K
b0 J
b0 I
b0 F
b0 E
bz D
b0 C
b0 A
b0 @
b0 ?
b0 >
b0 <
b0 8
b0 7
16
05
04
03
02
01
00
b0 /
b0 .
b0 -
b0 ,
0+
0*
0)
b0 (
b0 '
bz &
1%
0$
0#
b0 "
b0 !
$end
#5
1$
#10
0$
0%
#15
b1 V
1*
1$
#20
0$
#25
bx &
bx D
bx K
bx W
bx ^
b10 V
1+
1$
#30
0$
#35
b11111110 &
b11111110 D
b11111110 K
b11111110 W
b11111110 ^
b11 V
11
b11111110 a
1$
#40
0$
#45
b100 V
b11110 -
b11110 @
b11110 \
b111 .
b111 F
b111 M
b111 [
1$
#50
0$
#55
bz &
bz D
bz K
bz W
bz ^
b11110 "
b11110 '
b11110 /
b11110 ?
b11110 ]
b11110 b
b101 V
13
01
0+
0*
1$
#60
0$
#65
b110 V
03
b1 ,
b1 A
b1 d
1$
#70
0$
#75
b111 V
10
1$
#80
0$
#85
b0 V
b11110 ,
b11110 A
b11110 d
1$
#90
0$
#95
b1 V
00
1*
1$
#100
0$
#105
b11111110 &
b11111110 D
b11111110 K
b11111110 W
b11111110 ^
b10 V
1+
1$
#110
0$
#115
b11100011 &
b11100011 D
b11100011 K
b11100011 W
b11100011 ^
b11 V
11
b11100011 a
1$
#120
0$
#125
b100 V
b11 -
b11 @
b11 \
1$
#130
0$
#135
bz &
bz D
bz K
bz W
bz ^
b11 "
b11 '
b11 /
b11 ?
b11 ]
b11 b
b101 V
13
01
0+
0*
1$
#140
0$
#145
b110 V
03
b11111 ,
b11111 A
b11111 d
1$
#150
0$
#155
b111 V
10
1$
#160
0$
#165
b0 V
b11 ,
b11 A
b11 d
1$
#170
0$
#175
b1 V
00
1*
1$
#180
0$
#185
b11100011 &
b11100011 D
b11100011 K
b11100011 W
b11100011 ^
b10 V
1+
1$
#190
0$
#195
b10111010 &
b10111010 D
b10111010 K
b10111010 W
b10111010 ^
b11 V
11
b10111010 a
1$
#200
0$
#205
06
b10111010 7
b10111010 <
b10111010 E
b10111010 I
b100 V
b11010 -
b11010 @
b11010 \
b101 .
b101 F
b101 M
b101 [
1$
#210
0$
#215
x6
bz 7
bz <
bz E
bz I
bz &
bz D
bz K
bz W
bz ^
b11010 "
b11010 '
b11010 /
b11010 ?
b11010 ]
b11010 b
b101 V
13
01
0+
0*
1$
#220
0$
#225
06
b10111010 7
b10111010 <
b10111010 E
b10111010 I
b10111010 &
b10111010 D
b10111010 K
b10111010 W
b10111010 ^
b110 V
1+
03
b100 ,
b100 A
b100 d
1$
#230
0$
#235
16
b0 7
b0 <
b0 E
b0 I
b0 &
b0 D
b0 K
b0 W
b0 ^
b111 V
b0 a
1$
#240
0$
#245
b0 V
12
1$
#250
0$
#255
x6
bz 7
bz <
bz E
bz I
bz &
bz D
bz K
bz W
bz ^
b100 "
b100 '
b100 /
b100 ?
b100 ]
b100 b
b1 V
02
0+
1*
1$
#260
0$
#265
16
b0 7
b0 <
b0 E
b0 I
b0 &
b0 D
b0 K
b0 W
b0 ^
b10 V
1+
1$
#270
0$
#275
06
b100000 7
b100000 <
b100000 E
b100000 I
b100000 &
b100000 D
b100000 K
b100000 W
b100000 ^
b11 V
11
b100000 a
1$
#280
0$
#285
16
b0 7
b0 <
b0 E
b0 I
b100 V
b0 -
b0 @
b0 \
b1 .
b1 F
b1 M
b1 [
1$
#290
0$
#295
bz &
bz D
bz K
bz W
bz ^
b0 "
b0 '
b0 /
b0 ?
b0 ]
b0 b
b101 V
13
01
0+
0*
1$
#300
0$
#305
b110 V
03
b101 ,
b101 A
b101 d
1$
#310
0$
#315
b111 V
13
1$
#320
0$
#325
b0 V
03
b110 ,
b110 A
b110 d
1$
#330
0$
#335
b110 "
b110 '
b110 /
b110 ?
b110 ]
b110 b
b1 V
1*
1$
#340
0$
#345
b100000 &
b100000 D
b100000 K
b100000 W
b100000 ^
b10 V
1+
1$
#350
0$
#355
b10111011 &
b10111011 D
b10111011 K
b10111011 W
b10111011 ^
b11 V
11
b10111011 a
1$
#360
0$
#365
06
b10111011 7
b10111011 <
b10111011 E
b10111011 I
b100 V
b11011 -
b11011 @
b11011 \
b101 .
b101 F
b101 M
b101 [
1$
#370
0$
#375
x6
bz 7
bz <
bz E
bz I
bz &
bz D
bz K
bz W
bz ^
b11011 "
b11011 '
b11011 /
b11011 ?
b11011 ]
b11011 b
b101 V
13
01
0+
0*
1$
#380
0$
#385
06
b10111011 7
b10111011 <
b10111011 E
b10111011 I
b10111011 &
b10111011 D
b10111011 K
b10111011 W
b10111011 ^
b110 V
1+
03
b111 ,
b111 A
b111 d
1$
#390
0$
#395
b11111111 7
b11111111 <
b11111111 E
b11111111 I
b11111111 &
b11111111 D
b11111111 K
b11111111 W
b11111111 ^
b111 V
b11111111 a
1$
#400
0$
#405
b0 V
12
1$
#410
0$
#415
x6
bz 7
bz <
bz E
bz I
bz &
bz D
bz K
bz W
bz ^
b111 "
b111 '
b111 /
b111 ?
b111 ]
b111 b
b11111111 !
b11111111 (
b11111111 8
b11111111 >
b11111111 C
b11111111 J
b1 V
02
0+
1*
1$
#420
0$
#425
06
b11111111 7
b11111111 <
b11111111 E
b11111111 I
b11111111 &
b11111111 D
b11111111 K
b11111111 W
b11111111 ^
b10 V
1+
1$
#430
0$
#435
b100000 7
b100000 <
b100000 E
b100000 I
b100000 &
b100000 D
b100000 K
b100000 W
b100000 ^
b11 V
11
b100000 a
1$
#440
0$
#445
b11111111 7
b11111111 <
b11111111 E
b11111111 I
b100 V
b0 -
b0 @
b0 \
b1 .
b1 F
b1 M
b1 [
1$
#450
0$
#455
bz &
bz D
bz K
bz W
bz ^
b0 "
b0 '
b0 /
b0 ?
b0 ]
b0 b
b101 V
13
01
0+
0*
1$
#460
0$
#465
b110 V
03
b1000 ,
b1000 A
b1000 d
1$
#470
0$
#475
b111 V
1$
#480
0$
#485
b0 V
1$
#490
0$
#495
b1000 "
b1000 '
b1000 /
b1000 ?
b1000 ]
b1000 b
b1 V
1*
1$
#500
0$
#505
b100000 &
b100000 D
b100000 K
b100000 W
b100000 ^
b10 V
1+
1$
#510
0$
#515
b11101010 &
b11101010 D
b11101010 K
b11101010 W
b11101010 ^
b11 V
11
b11101010 a
1$
#520
0$
#525
b100 V
b1010 -
b1010 @
b1010 \
b111 .
b111 F
b111 M
b111 [
1$
#530
0$
#535
bz &
bz D
bz K
bz W
bz ^
b1010 "
b1010 '
b1010 /
b1010 ?
b1010 ]
b1010 b
b101 V
13
01
0+
0*
1$
#540
0$
#545
b110 V
03
b1001 ,
b1001 A
b1001 d
1$
#550
0$
#555
b111 V
10
1$
#560
0$
#565
b0 V
b1010 ,
b1010 A
b1010 d
1$
#570
0$
#575
b1 V
00
1*
1$
#580
0$
#585
b11101010 &
b11101010 D
b11101010 K
b11101010 W
b11101010 ^
b10 V
1+
1$
#590
0$
#595
b11011100 &
b11011100 D
b11011100 K
b11011100 W
b11011100 ^
b11 V
11
b11011100 a
1$
#600
0$
#605
b100 V
b11100 -
b11100 @
b11100 \
b110 .
b110 F
b110 M
b110 [
1$
#610
0$
#615
bz &
bz D
bz K
bz W
bz ^
b11100 "
b11100 '
b11100 /
b11100 ?
b11100 ]
b11100 b
b101 V
13
01
0+
0*
1$
#620
0$
#625
b110 V
03
b1011 ,
b1011 A
b1011 d
1$
#630
0$
#635
b11111111 &
b11111111 D
b11111111 K
b11111111 W
b11111111 ^
b111 V
15
1$
#640
0$
#645
b0 V
1)
1$
#650
0$
#655
bz &
bz D
bz K
bz W
bz ^
b1011 "
b1011 '
b1011 /
b1011 ?
b1011 ]
b1011 b
b1 V
05
0)
1*
1$
#660
0$
#665
b11011100 &
b11011100 D
b11011100 K
b11011100 W
b11011100 ^
b10 V
1+
1$
#670
0$
#675
b10111010 &
b10111010 D
b10111010 K
b10111010 W
b10111010 ^
b11 V
11
b10111010 a
1$
#680
0$
#685
b10111010 7
b10111010 <
b10111010 E
b10111010 I
b100 V
b11010 -
b11010 @
b11010 \
b101 .
b101 F
b101 M
b101 [
1$
#690
0$
#695
x6
bz 7
bz <
bz E
bz I
bz &
bz D
bz K
bz W
bz ^
b11010 "
b11010 '
b11010 /
b11010 ?
b11010 ]
b11010 b
b101 V
13
01
0+
0*
1$
#700
0$
#705
06
b10111010 7
b10111010 <
b10111010 E
b10111010 I
b10111010 &
b10111010 D
b10111010 K
b10111010 W
b10111010 ^
b110 V
1+
03
b1100 ,
b1100 A
b1100 d
1$
#710
0$
#715
16
b0 7
b0 <
b0 E
b0 I
b0 &
b0 D
b0 K
b0 W
b0 ^
b111 V
b0 a
1$
#720
0$
#725
b0 V
12
1$
#730
0$
#735
x6
bz 7
bz <
bz E
bz I
bz &
bz D
bz K
bz W
bz ^
b1100 "
b1100 '
b1100 /
b1100 ?
b1100 ]
b1100 b
b0 !
b0 (
b0 8
b0 >
b0 C
b0 J
b1 V
02
0+
1*
1$
#740
0$
#745
16
b0 7
b0 <
b0 E
b0 I
b0 &
b0 D
b0 K
b0 W
b0 ^
b10 V
1+
1$
#750
0$
#755
06
b11011100 7
b11011100 <
b11011100 E
b11011100 I
b11011100 &
b11011100 D
b11011100 K
b11011100 W
b11011100 ^
b11 V
11
b11011100 a
1$
#760
0$
#765
16
b0 7
b0 <
b0 E
b0 I
b100 V
b11100 -
b11100 @
b11100 \
b110 .
b110 F
b110 M
b110 [
1$
#770
0$
#775
bz &
bz D
bz K
bz W
bz ^
b11100 "
b11100 '
b11100 /
b11100 ?
b11100 ]
b11100 b
b101 V
13
01
0+
0*
1$
#780
0$
#785
b110 V
03
b1101 ,
b1101 A
b1101 d
1$
#790
0$
#795
b0 &
b0 D
b0 K
b0 W
b0 ^
b111 V
15
1$
#800
0$
#805
b0 V
1)
1$
#810
0$
#815
bz &
bz D
bz K
bz W
bz ^
b1101 "
b1101 '
b1101 /
b1101 ?
b1101 ]
b1101 b
b1 V
05
0)
1*
1$
#820
0$
#825
b11011100 &
b11011100 D
b11011100 K
b11011100 W
b11011100 ^
b10 V
1+
1$
#830
0$
#835
b10111100 &
b10111100 D
b10111100 K
b10111100 W
b10111100 ^
b11 V
11
b10111100 a
1$
#840
0$
#845
06
b10111100 7
b10111100 <
b10111100 E
b10111100 I
b100 V
b101 .
b101 F
b101 M
b101 [
1$
#850
0$
#855
x6
bz 7
bz <
bz E
bz I
bz &
bz D
bz K
bz W
bz ^
b11100 "
b11100 '
b11100 /
b11100 ?
b11100 ]
b11100 b
b101 V
13
01
0+
0*
1$
#860
0$
#865
06
b10111100 7
b10111100 <
b10111100 E
b10111100 I
b10111100 &
b10111100 D
b10111100 K
b10111100 W
b10111100 ^
b110 V
1+
03
b1110 ,
b1110 A
b1110 d
1$
#870
0$
#875
16
b0 7
b0 <
b0 E
b0 I
b0 &
b0 D
b0 K
b0 W
b0 ^
b111 V
b0 a
1$
#880
0$
#885
b0 V
12
1$
#890
0$
#895
x6
bz 7
bz <
bz E
bz I
bz &
bz D
bz K
bz W
bz ^
b1110 "
b1110 '
b1110 /
b1110 ?
b1110 ]
b1110 b
b1 V
02
0+
1*
1$
#900
0$
#905
16
b0 7
b0 <
b0 E
b0 I
b0 &
b0 D
b0 K
b0 W
b0 ^
b10 V
1+
1$
#910
0$
#915
06
b100000 7
b100000 <
b100000 E
b100000 I
b100000 &
b100000 D
b100000 K
b100000 W
b100000 ^
b11 V
11
b100000 a
1$
#920
0$
#925
16
b0 7
b0 <
b0 E
b0 I
b100 V
b0 -
b0 @
b0 \
b1 .
b1 F
b1 M
b1 [
1$
#930
0$
#935
bz &
bz D
bz K
bz W
bz ^
b0 "
b0 '
b0 /
b0 ?
b0 ]
b0 b
b101 V
13
01
0+
0*
1$
#940
0$
#945
b110 V
03
b1111 ,
b1111 A
b1111 d
1$
#950
0$
#955
b111 V
13
1$
#960
0$
#965
b0 V
03
b10000 ,
b10000 A
b10000 d
1$
#970
0$
#975
b10000 "
b10000 '
b10000 /
b10000 ?
b10000 ]
b10000 b
b1 V
1*
1$
#980
0$
#985
b100000 &
b100000 D
b100000 K
b100000 W
b100000 ^
b10 V
1+
1$
#990
0$
#995
b10011011 &
b10011011 D
b10011011 K
b10011011 W
b10011011 ^
b11 V
11
b10011011 a
1$
#1000
0$
#1005
06
b10011011 7
b10011011 <
b10011011 E
b10011011 I
b100 V
b11011 -
b11011 @
b11011 \
b100 .
b100 F
b100 M
b100 [
1$
#1010
0$
#1015
x6
bx 7
bx <
bx E
bx I
bz &
bz D
bz K
bz W
bz ^
b11011 "
b11011 '
b11011 /
b11011 ?
b11011 ]
b11011 b
b101 V
13
01
0+
0*
1$
#1020
0$
#1025
06
b10011011 7
b10011011 <
b10011011 E
b10011011 I
b10011011 &
b10011011 D
b10011011 K
b10011011 W
b10011011 ^
b110 V
1+
03
b10001 ,
b10001 A
b10001 d
1$
#1030
0$
#1035
b11111111 7
b11111111 <
b11111111 E
b11111111 I
b11111111 &
b11111111 D
b11111111 K
b11111111 W
b11111111 ^
b111 V
b11111111 a
1$
#1040
0$
#1045
b0 V
12
1$
#1050
0$
#1055
x6
bz &
bz D
bz K
bz W
bz ^
bx 7
bx <
bx E
bx I
b10001 "
b10001 '
b10001 /
b10001 ?
b10001 ]
b10001 b
b11111111 !
b11111111 (
b11111111 8
b11111111 >
b11111111 C
b11111111 J
b1 V
02
0+
1*
1$
#1060
0$
#1065
16
b0 7
b0 <
b0 E
b0 I
b11111111 &
b11111111 D
b11111111 K
b11111111 W
b11111111 ^
b10 V
1+
1$
#1070
0$
#1075
06
b11011111 7
b11011111 <
b11011111 E
b11011111 I
b100000 &
b100000 D
b100000 K
b100000 W
b100000 ^
b11 V
11
b100000 a
1$
#1080
0$
#1085
b11111111 7
b11111111 <
b11111111 E
b11111111 I
b100 V
b0 -
b0 @
b0 \
b1 .
b1 F
b1 M
b1 [
1$
#1090
0$
#1095
bz &
bz D
bz K
bz W
bz ^
b0 "
b0 '
b0 /
b0 ?
b0 ]
b0 b
b101 V
13
01
0+
0*
1$
#1100
0$
#1105
b110 V
03
b10010 ,
b10010 A
b10010 d
1$
#1110
0$
#1115
b111 V
1$
#1120
0$
#1125
b0 V
1$
#1130
0$
#1135
b10010 "
b10010 '
b10010 /
b10010 ?
b10010 ]
b10010 b
b1 V
1*
1$
#1140
0$
#1145
b100000 &
b100000 D
b100000 K
b100000 W
b100000 ^
b10 V
1+
1$
#1150
0$
#1155
b11110100 &
b11110100 D
b11110100 K
b11110100 W
b11110100 ^
b11 V
11
b11110100 a
1$
#1160
0$
#1165
b100 V
b10100 -
b10100 @
b10100 \
b111 .
b111 F
b111 M
b111 [
1$
#1170
0$
#1175
bz &
bz D
bz K
bz W
bz ^
b10100 "
b10100 '
b10100 /
b10100 ?
b10100 ]
b10100 b
b101 V
13
01
0+
0*
1$
#1180
0$
#1185
b110 V
03
b10011 ,
b10011 A
b10011 d
1$
#1190
0$
#1195
b111 V
10
1$
#1200
0$
#1205
b0 V
b10100 ,
b10100 A
b10100 d
1$
#1210
0$
#1215
b1 V
00
1*
1$
#1220
0$
#1225
b11110100 &
b11110100 D
b11110100 K
b11110100 W
b11110100 ^
b10 V
1+
1$
#1230
0$
#1235
b10011011 &
b10011011 D
b10011011 K
b10011011 W
b10011011 ^
b11 V
11
b10011011 a
1$
#1240
0$
#1245
b1100100 7
b1100100 <
b1100100 E
b1100100 I
b100 V
b11011 -
b11011 @
b11011 \
b100 .
b100 F
b100 M
b100 [
1$
#1250
0$
#1255
x6
bx 7
bx <
bx E
bx I
bz &
bz D
bz K
bz W
bz ^
b11011 "
b11011 '
b11011 /
b11011 ?
b11011 ]
b11011 b
b101 V
13
01
0+
0*
1$
#1260
0$
#1265
06
b1100100 7
b1100100 <
b1100100 E
b1100100 I
b10011011 &
b10011011 D
b10011011 K
b10011011 W
b10011011 ^
b110 V
1+
03
b10101 ,
b10101 A
b10101 d
1$
#1270
0$
#1275
16
b0 7
b0 <
b0 E
b0 I
b11111111 &
b11111111 D
b11111111 K
b11111111 W
b11111111 ^
b111 V
b11111111 a
1$
#1280
0$
#1285
b0 V
12
1$
#1290
0$
#1295
x6
bz &
bz D
bz K
bz W
bz ^
bx 7
bx <
bx E
bx I
b10101 "
b10101 '
b10101 /
b10101 ?
b10101 ]
b10101 b
b0 !
b0 (
b0 8
b0 >
b0 C
b0 J
b1 V
02
0+
1*
1$
#1300
0$
#1305
06
b11111111 7
b11111111 <
b11111111 E
b11111111 I
b11111111 &
b11111111 D
b11111111 K
b11111111 W
b11111111 ^
b10 V
1+
1$
#1310
0$
#1315
b100000 7
b100000 <
b100000 E
b100000 I
b100000 &
b100000 D
b100000 K
b100000 W
b100000 ^
b11 V
11
b100000 a
1$
#1320
0$
#1325
16
b0 7
b0 <
b0 E
b0 I
b100 V
b0 -
b0 @
b0 \
b1 .
b1 F
b1 M
b1 [
1$
#1330
0$
#1335
bz &
bz D
bz K
bz W
bz ^
b0 "
b0 '
b0 /
b0 ?
b0 ]
b0 b
b101 V
13
01
0+
0*
1$
#1340
0$
#1345
b110 V
03
b10110 ,
b10110 A
b10110 d
1$
#1350
0$
#1355
b111 V
13
1$
#1360
0$
#1365
b0 V
03
b10111 ,
b10111 A
b10111 d
1$
#1370
0$
#1375
b10111 "
b10111 '
b10111 /
b10111 ?
b10111 ]
b10111 b
b1 V
1*
1$
#1380
0$
#1385
b100000 &
b100000 D
b100000 K
b100000 W
b100000 ^
b10 V
1+
1$
#1390
0$
#1395
b0 &
b0 D
b0 K
b0 W
b0 ^
b11 V
11
b0 a
1$
#1400
0$
#1405
b100 V
b0 .
b0 F
b0 M
b0 [
1$
#1410
0$
#1415
bz &
bz D
bz K
bz W
bz ^
b0 "
b0 '
b0 /
b0 ?
b0 ]
b0 b
1#
14
01
0+
0*
1$
